PCBNEW-LibModule-V1  Ср 14 янв 2015 10:47:17
# encoding utf-8
Units mm
$INDEX
ARM_JTAG_10x2
$EndINDEX
$MODULE ARM_JTAG_10x2
Po 0 0 0 15 54B6024B 00000000 ~~
Li ARM_JTAG_10x2
Cd Double rangee de contacts 2 x 10 pins
Kw CONN
Sc 0
AR /54A087D5
Op 0 0 0
T0 0.127 3.429 1.016 1.016 0 0.254 N V 21 N "J1"
T1 -0.127 -3.429 1.016 1.016 0 0.2032 N V 21 N "ARM-JTAG"
DS -2.5 4.5 -2.5 4 0.381 21
DS -2.5 4 2.5 4 0.381 21
DS 2.5 4 2.5 4.5 0.381 21
DS 16.5 -4.5 16.5 4.5 0.381 21
DS -16.5 4.5 -16.5 -4.5 0.381 21
DS 16.5 4.5 -16.5 4.5 0.381 21
DS -16.5 -4.5 16.5 -4.5 0.381 21
DS 16.5 -1.5 15.5 -1.5 0.381 21
DS 15.5 -1.5 15.5 1.5 0.381 21
DS 15.5 1.5 16.5 1.5 0.381 21
DS -16.5 -1.5 -15.5 -1.5 0.381 21
DS -15.5 -1.5 -15.5 1.5 0.381 21
DS -15.5 1.5 -16.5 1.5 0.381 21
$PAD
Sh "1" R 1.86 1.86 0 0 0
Dr 1.016 0 0
At STD N 00F0FFFF
Ne 1 "+3.3V"
Po -11.43 1.27
$EndPAD
$PAD
Sh "2" C 1.86 1.86 0 0 0
Dr 1.016 0 0
At STD N 00F0FFFF
Ne 1 "+3.3V"
Po -11.43 -1.27
$EndPAD
$PAD
Sh "3" C 1.86 1.86 0 0 0
Dr 1.016 0 0
At STD N 00F0FFFF
Ne 10 "NJTRST"
Po -8.89 1.27
$EndPAD
$PAD
Sh "4" C 1.86 1.86 0 0 0
Dr 1.016 0 0
At STD N 00F0FFFF
Ne 2 "GND"
Po -8.89 -1.27
$EndPAD
$PAD
Sh "5" C 1.86 1.86 0 0 0
Dr 1.016 0 0
At STD N 00F0FFFF
Ne 4 "JTDI"
Po -6.35 1.27
$EndPAD
$PAD
Sh "6" C 1.86 1.86 0 0 0
Dr 1.016 0 0
At STD N 00F0FFFF
Ne 2 "GND"
Po -6.35 -1.27
$EndPAD
$PAD
Sh "7" C 1.86 1.86 0 0 0
Dr 1.016 0 0
At STD N 00F0FFFF
Ne 6 "JTMS/SWDIO"
Po -3.81 1.27
$EndPAD
$PAD
Sh "8" C 1.86 1.86 0 0 0
Dr 1.016 0 0
At STD N 00F0FFFF
Ne 2 "GND"
Po -3.81 -1.27
$EndPAD
$PAD
Sh "9" C 1.86 1.86 0 0 0
Dr 1.016 0 0
At STD N 00F0FFFF
Ne 3 "JTCK/SWCLK"
Po -1.27 1.27
$EndPAD
$PAD
Sh "10" C 1.86 1.86 0 0 0
Dr 1.016 0 0
At STD N 00F0FFFF
Ne 2 "GND"
Po -1.27 -1.27
$EndPAD
$PAD
Sh "11" C 1.86 1.86 0 0 0
Dr 1.016 0 0
At STD N 00F0FFFF
Ne 7 "N-0000025"
Po 1.27 1.27
$EndPAD
$PAD
Sh "12" C 1.86 1.86 0 0 0
Dr 1.016 0 0
At STD N 00F0FFFF
Ne 2 "GND"
Po 1.27 -1.27
$EndPAD
$PAD
Sh "13" C 1.86 1.86 0 0 0
Dr 1.016 0 0
At STD N 00F0FFFF
Ne 5 "JTDO"
Po 3.81 1.27
$EndPAD
$PAD
Sh "14" C 1.86 1.86 0 0 0
Dr 1.016 0 0
At STD N 00F0FFFF
Ne 2 "GND"
Po 3.81 -1.27
$EndPAD
$PAD
Sh "15" C 1.86 1.86 0 0 0
Dr 1.016 0 0
At STD N 00F0FFFF
Ne 11 "NRST"
Po 6.35 1.27
$EndPAD
$PAD
Sh "16" C 1.86 1.86 0 0 0
Dr 1.016 0 0
At STD N 00F0FFFF
Ne 2 "GND"
Po 6.35 -1.27
$EndPAD
$PAD
Sh "17" C 1.86 1.86 0 0 0
Dr 1.016 0 0
At STD N 00F0FFFF
Ne 9 "N-0000033"
Po 8.89 1.27
$EndPAD
$PAD
Sh "18" C 1.86 1.86 0 0 0
Dr 1.016 0 0
At STD N 00F0FFFF
Ne 2 "GND"
Po 8.89 -1.27
$EndPAD
$PAD
Sh "19" C 1.86 1.86 0 0 0
Dr 1.016 0 0
At STD N 00F0FFFF
Ne 8 "N-0000030"
Po 11.43 1.27
$EndPAD
$PAD
Sh "20" C 1.86 1.86 0 0 0
Dr 1.016 0 0
At STD N 00F0FFFF
Ne 2 "GND"
Po 11.43 -1.27
$EndPAD
$SHAPE3D
Na "pin_array/pins_array_10x2.wrl"
Sc 1 1 1
Of 0 0 0
Ro 0 0 0
$EndSHAPE3D
$EndMODULE ARM_JTAG_10x2
$EndLIBRARY
