PCBNEW-LibModule-V1  Ср 14 янв 2015 10:51:29
# encoding utf-8
Units mm
$INDEX
NRF24L01_V1
NRF24L01_V2
XL4432-SMT
XL4432-SMT-HEAD
$EndINDEX
$MODULE NRF24L01_V1
Po 0 0 0 15 54B603DE 00000000 ~~
Li NRF24L01_V1
Sc 0
AR /54A088DA
Op 0 0 0
T0 0 16.51 1 1 0 0.15 N V 21 N "D2"
T1 0 3.81 1 1 0 0.15 N V 21 N "NRF24L01_V1"
DS 2.54 25.4 2.54 20.955 0.5 21
DS 1.27 20.955 2.54 20.955 0.5 21
DS 1.27 25.4 1.27 20.955 0.5 21
DS 0 25.4 0 20.955 0.5 21
DS -1.27 20.955 0 20.955 0.5 21
DS -1.27 25.4 -1.27 20.955 0.5 21
DS -3.81 20.955 -2.54 20.955 0.5 21
DS -2.54 20.955 -2.54 25.4 0.5 21
DS -1.27 25.4 -2.54 25.4 0.5 21
DS 1.27 25.4 0 25.4 0.5 21
DS 3.81 25.4 2.54 25.4 0.5 21
DS 3.81 19.685 -3.81 19.685 0.5 21
DS 3.81 18.415 3.81 25.4 0.5 21
DS -6.985 25.4 -3.81 25.4 0.5 21
DS -3.81 25.4 -3.81 20.955 0.5 21
DS -6.985 18.415 6.985 18.415 0.15 21
DS 6.985 18.415 6.985 2.54 0.15 21
DS 6.985 2.54 -6.985 2.54 0.15 21
DS -6.985 2.54 -6.985 18.415 0.15 21
DS 7.62 -2.54 -7.62 -2.54 0.15 21
DS -7.62 -2.54 -7.62 26.67 0.15 21
DS -7.62 26.67 7.62 26.67 0.15 21
DS 7.62 26.67 7.62 -2.54 0.15 21
$PAD
Sh "2" C 1.86 1.86 0 0 0
Dr 1.016 0 0
At STD N 00F0FFFF
Ne 1 "+3.3V"
Po 5.08 -1.27
$EndPAD
$PAD
Sh "1" R 1.86 1.86 0 0 0
Dr 1.016 0 0
At STD N 00F0FFFF
Ne 2 "GND"
Po 5.08 1.27
$EndPAD
$PAD
Sh "3" C 1.86 1.86 0 0 0
Dr 1.016 0 0
At STD N 00F0FFFF
Ne 3 "RF24_CE"
Po 2.54 -1.27
$EndPAD
$PAD
Sh "4" C 1.86 1.86 0 0 0
Dr 1.016 0 0
At STD N 00F0FFFF
Ne 7 "~RF24_CS"
Po 2.54 1.27
$EndPAD
$PAD
Sh "5" C 1.86 1.86 0 0 0
Dr 1.016 0 0
At STD N 00F0FFFF
Ne 4 "RF24_SCK"
Po 0 1.27
$EndPAD
$PAD
Sh "6" C 1.86 1.86 0 0 0
Dr 1.016 0 0
At STD N 00F0FFFF
Ne 5 "RF24_SDI"
Po 0 -1.27
$EndPAD
$PAD
Sh "7" C 1.86 1.86 0 0 0
Dr 1.016 0 0
At STD N 00F0FFFF
Ne 6 "RF24_SDO"
Po -2.54 1.27
$EndPAD
$PAD
Sh "8" C 1.86 1.86 0 0 0
Dr 1.016 0 0
At STD N 00F0FFFF
Ne 8 "~RF24_IRQ"
Po -2.54 -1.27
$EndPAD
$EndMODULE NRF24L01_V1
$MODULE NRF24L01_V2
Po 0 0 0 15 54B60340 00000000 ~~
Li NRF24L01_V2
Sc 0
AR /54A088FC
Op 0 0 0
T0 0 17.5 1 1 0 0.15 N V 21 N "D4"
T1 0 4 1 1 0 0.15 N V 21 N "NRF24L01_V2"
DS -6.985 31.115 6.985 31.115 0.15 21
DS 6.985 -2.54 6.985 31.115 0.15 21
DS -6.985 -2.54 -6.985 31.115 0.15 21
DS -6.985 -2.54 6.985 -2.54 0.15 21
DS 1 6 5 6 0.15 21
DS 5 6 5 10 0.15 21
DS 5 10 1 10 0.15 21
DS 1 10 1 6 0.15 21
DS -2.5 5.5 -2.5 12.5 0.15 21
DA -4.5 12.5 -2.5 12.5 1800 0.15 21
DA -4.5 5.5 -6.5 5.5 1800 0.15 21
DS 3 20.5 3 20 1 21
DS 3 20.5 6 23.5 1 21
DS 6 23.5 6 30 1 21
DS 6 30 -6 30 1 21
DS -6 30 -6 29 1 21
DS -6.5 2.5 6.5 2.5 0.15 21
DS 6.5 2.5 6.5 20 0.15 21
DS 6.5 20 -6.5 20 0.15 21
DS -6.5 20 -6.5 2.5 0.15 21
$PAD
Sh "1" R 1.86 1.86 0 0 0
Dr 1.016 0 0
At STD N 00F0FFFF
Ne 1 "+3.3V"
Po 5.08 -1.27
$EndPAD
$PAD
Sh "2" C 1.86 1.86 0 0 0
Dr 1.016 0 0
At STD N 00F0FFFF
Ne 1 "+3.3V"
Po 5.08 1.27
$EndPAD
$PAD
Sh "3" C 1.86 1.86 0 0 0
Dr 1.016 0 0
At STD N 00F0FFFF
Ne 3 "RF24_CE"
Po 2.54 -1.27
$EndPAD
$PAD
Sh "4" C 1.86 1.86 0 0 0
Dr 1.016 0 0
At STD N 00F0FFFF
Ne 7 "~RF24_CS"
Po 2.54 1.27
$EndPAD
$PAD
Sh "5" C 1.86 1.86 0 0 0
Dr 1.016 0 0
At STD N 00F0FFFF
Ne 4 "RF24_SCK"
Po 0 -1.27
$EndPAD
$PAD
Sh "6" C 1.86 1.86 0 0 0
Dr 1.016 0 0
At STD N 00F0FFFF
Ne 5 "RF24_SDI"
Po 0 1.27
$EndPAD
$PAD
Sh "7" C 1.86 1.86 0 0 0
Dr 1.016 0 0
At STD N 00F0FFFF
Ne 6 "RF24_SDO"
Po -2.54 -1.27
$EndPAD
$PAD
Sh "8" C 1.86 1.86 0 0 0
Dr 1.016 0 0
At STD N 00F0FFFF
Ne 8 "~RF24_IRQ"
Po -2.54 1.27
$EndPAD
$PAD
Sh "9" C 1.86 1.86 0 0 0
Dr 1.016 0 0
At STD N 00F0FFFF
Ne 2 "GND"
Po -5.08 -1.27
$EndPAD
$PAD
Sh "10" C 1.86 1.86 0 0 0
Dr 1.016 0 0
At STD N 00F0FFFF
Ne 2 "GND"
Po -5.08 1.27
$EndPAD
$EndMODULE NRF24L01_V2
$MODULE XL4432-SMT
Po 0 0 0 15 5496F582 00000000 ~~
Li XL4432-SMT
Sc 0
AR 
Op 0 0 0
T0 0 5.08 1 1 0 0.15 N V 21 N "XL4432-SMT"
T1 0 -5.715 1 1 0 0.15 N V 21 N "VAL**"
DS -8.255 -8.255 8.255 -8.255 0.15 21
DS 8.255 -8.255 8.255 8.255 0.15 21
DS 8.255 8.255 -8.255 8.255 0.15 21
DS -8.255 8.255 -8.255 -8.255 0.15 21
$PAD
Sh "1" O 2 0.9 0 0 0
Dr 0 0 0
At SMD N 00888000
Ne 0 ""
Po -8.255 -6.985
$EndPAD
$PAD
Sh "2" O 2 0.9 0 0 0
Dr 0 0 0
At SMD N 00888000
Ne 0 ""
Po -8.255 -5.715
$EndPAD
$PAD
Sh "3" O 2 0.9 0 0 0
Dr 0 0 0
At SMD N 00888000
Ne 0 ""
Po -8.255 -4.445
$EndPAD
$PAD
Sh "4" O 2 0.9 0 0 0
Dr 0 0 0
At SMD N 00888000
Ne 0 ""
Po -8.255 -3.175
$EndPAD
$PAD
Sh "5" O 2 0.9 0 0 0
Dr 0 0 0
At SMD N 00888000
Ne 0 ""
Po -8.255 -1.905
$EndPAD
$PAD
Sh "6" O 2 0.9 0 0 0
Dr 0 0 0
At SMD N 00888000
Ne 0 ""
Po -8.255 -0.635
$EndPAD
$PAD
Sh "7" O 2 0.9 0 0 0
Dr 0 0 0
At SMD N 00888000
Ne 0 ""
Po -8.255 0.635
$EndPAD
$PAD
Sh "8" O 2 0.9 0 0 0
Dr 0 0 0
At SMD N 00888000
Ne 0 ""
Po -8.255 1.905
$EndPAD
$PAD
Sh "9" O 2 0.9 0 0 0
Dr 0 0 0
At SMD N 00888000
Ne 0 ""
Po -8.255 3.175
$EndPAD
$PAD
Sh "10" O 2 0.9 0 0 0
Dr 0 0 0
At SMD N 00888000
Ne 0 ""
Po -8.255 4.445
$EndPAD
$PAD
Sh "11" O 2 0.9 0 0 0
Dr 0 0 0
At SMD N 00888000
Ne 0 ""
Po -8.255 5.715
$EndPAD
$PAD
Sh "12" O 2 0.9 0 0 0
Dr 0 0 0
At SMD N 00888000
Ne 0 ""
Po -8.255 6.985
$EndPAD
$PAD
Sh "13" O 2 0.9 0 0 0
Dr 0 0 0
At SMD N 00888000
Ne 0 ""
Po 8.255 -6.985
$EndPAD
$PAD
Sh "14" O 2 0.9 0 0 0
Dr 0 0 0
At SMD N 00888000
Ne 0 ""
Po 8.255 -5.715
$EndPAD
$EndMODULE XL4432-SMT
$MODULE XL4432-SMT-HEAD
Po 0 0 0 15 54A03AD4 00000000 ~~
Li XL4432-SMT-HEAD
Sc 0
AR 
Op 0 0 0
T0 0 5.08 1 1 0 0.15 N V 21 N "XL4432-SMT-HEAD"
T1 0 -5.715 1 1 0 0.15 N V 21 N "VAL**"
DS -8.255 -8.255 8.255 -8.255 0.15 21
DS 8.255 -8.255 8.255 8.255 0.15 21
DS 8.255 8.255 -8.255 8.255 0.15 21
DS -8.255 8.255 -8.255 -8.255 0.15 21
$PAD
Sh "1" O 2 0.9 0 0 0
Dr 0 0 0
At SMD N 00888000
Ne 0 ""
Po -8.255 -6.985
$EndPAD
$PAD
Sh "2" O 2 0.9 0 0 0
Dr 0 0 0
At SMD N 00888000
Ne 0 ""
Po -8.255 -5.715
$EndPAD
$PAD
Sh "3" O 2 0.9 0 0 0
Dr 0 0 0
At SMD N 00888000
Ne 0 ""
Po -8.255 -4.445
$EndPAD
$PAD
Sh "4" O 2 0.9 0 0 0
Dr 0 0 0
At SMD N 00888000
Ne 0 ""
Po -8.255 -3.175
$EndPAD
$PAD
Sh "5" O 2 0.9 0 0 0
Dr 0 0 0
At SMD N 00888000
Ne 0 ""
Po -8.255 -1.905
$EndPAD
$PAD
Sh "6" O 2 0.9 0 0 0
Dr 0 0 0
At SMD N 00888000
Ne 0 ""
Po -8.255 -0.635
$EndPAD
$PAD
Sh "7" O 2 0.9 0 0 0
Dr 0 0 0
At SMD N 00888000
Ne 0 ""
Po -8.255 0.635
$EndPAD
$PAD
Sh "8" O 2 0.9 0 0 0
Dr 0 0 0
At SMD N 00888000
Ne 0 ""
Po -8.255 1.905
$EndPAD
$PAD
Sh "9" O 2 0.9 0 0 0
Dr 0 0 0
At SMD N 00888000
Ne 0 ""
Po -8.255 3.175
$EndPAD
$PAD
Sh "10" O 2 0.9 0 0 0
Dr 0 0 0
At SMD N 00888000
Ne 0 ""
Po -8.255 4.445
$EndPAD
$PAD
Sh "11" O 2 0.9 0 0 0
Dr 0 0 0
At SMD N 00888000
Ne 0 ""
Po -8.255 5.715
$EndPAD
$PAD
Sh "12" O 2 0.9 0 0 0
Dr 0 0 0
At SMD N 00888000
Ne 0 ""
Po -8.255 6.985
$EndPAD
$EndMODULE XL4432-SMT-HEAD
$EndLIBRARY
