PCBNEW-LibModule-V1  Вт 16 дек 2014 20:23:07
# encoding utf-8
Units mm
$INDEX
MINIUSB_5PIN
$EndINDEX
$MODULE MINIUSB_5PIN
Po 0 0 0 15 54904E51 00000000 ~P
Li MINIUSB_5PIN
Sc 0
AR /548F11B5/52E0AD8D
Op 0 0 0
T0 0 5.08 1.524 1.524 0 0.3048 N V 21 N "J402"
T1 0 2.54 1.524 1.524 0 0.3048 N I 21 N "USB-OTG"
DS 3.85064 -5.00126 -3.85064 -5.00126 0.381 21
DS 3.85064 4.0005 -3.85064 4.0005 0.381 21
DS 3.85064 4.0005 3.85064 -5.00126 0.381 21
DS -3.85064 4.0005 -3.85064 -5.00126 0.381 21
DC -2.20218 -1.24968 -1.7526 -1.24968 0.381 21
DC 2.1971 -1.24968 2.64668 -1.19888 0.381 21
$PAD
Sh "1" R 0.50038 2.30124 0 0 0
Dr 0 0 0
At SMD N 00888000
Ne 4 "N-00000136"
Po -1.6002 -3.85064
$EndPAD
$PAD
Sh "2" R 0.50038 2.30124 0 0 0
Dr 0 0 0
At SMD N 00888000
Ne 1 "/Interfaces/USBDM"
Po -0.8001 -3.85064
$EndPAD
$PAD
Sh "3" R 0.50038 2.30124 0 0 0
Dr 0 0 0
At SMD N 00888000
Ne 2 "/Interfaces/USBDP"
Po 0 -3.85064
$EndPAD
$PAD
Sh "4" R 0.50038 2.30124 0 0 0
Dr 0 0 0
At SMD N 00888000
Ne 0 ""
Po 0.8001 -3.85064
$EndPAD
$PAD
Sh "5" R 0.50038 2.30124 0 0 0
Dr 0 0 0
At SMD N 00888000
Ne 3 "GND"
Po 1.6002 -3.85064
$EndPAD
$PAD
Sh "5" R 1.99898 2.49936 0 0 0
Dr 0 0 0
At SMD N 00888000
Ne 3 "GND"
Po -4.45008 -3.74904
$EndPAD
$PAD
Sh "5" R 1.99898 2.49936 0 0 0
Dr 0 0 0
At SMD N 00888000
Ne 3 "GND"
Po 4.45008 -3.74904
$EndPAD
$PAD
Sh "5" R 1.99898 2.49936 0 0 0
Dr 0 0 0
At SMD N 00888000
Ne 3 "GND"
Po -4.35102 1.75006
$EndPAD
$PAD
Sh "5" R 1.99898 2.49936 0 0 0
Dr 0 0 0
At SMD N 00888000
Ne 3 "GND"
Po 4.45008 1.75006
$EndPAD
$PAD
Sh "~" C 1.00076 1.00076 0 0 0
Dr 0.50038 0 0
At STD N 00E0FFFF
Ne 0 ""
Po -2.19964 -1.24968
$EndPAD
$PAD
Sh "~" C 1.00076 1.00076 0 0 0
Dr 0.50038 0 0
At STD N 0000FFFF
Ne 0 ""
Po 2.19456 -1.24968
$EndPAD
$EndMODULE MINIUSB_5PIN
$EndLIBRARY
